<svg width="88" height="88" viewBox="0 0 88 88" fill="none" xmlns="http://www.w3.org/2000/svg">
<path d="M55.7334 29.3332C54.9554 29.3332 54.2093 29.0242 53.6592 28.4741C53.1091 27.924 52.8 27.1779 52.8 26.3999H49.8667C49.8667 27.9558 50.4848 29.448 51.585 30.5483C52.6852 31.6485 54.1774 32.2666 55.7334 32.2666C57.2893 32.2666 58.7815 31.6485 59.8817 30.5483C60.9819 29.448 61.6 27.9558 61.6 26.3999H58.6667C58.6667 27.1779 58.3577 27.924 57.8075 28.4741C57.2574 29.0242 56.5113 29.3332 55.7334 29.3332Z" fill="#8D1540"/>
<path d="M86.5333 73.3333H82.1333V52.184C82.1347 50.309 81.6215 48.4697 80.6496 46.8662C79.6777 45.2628 78.2845 43.9569 76.6216 43.0907C77.8699 40.4343 78.0738 37.4057 77.193 34.6059C76.3122 31.8062 74.411 29.4399 71.8667 27.9767V16.1333C71.8667 11.8545 70.1669 7.75093 67.1413 4.72534C64.1157 1.69976 60.0122 0 55.7333 0C51.4545 0 47.3509 1.69976 44.3253 4.72534C41.2998 7.75093 39.6 11.8545 39.6 16.1333V27.9767C37.0545 29.4402 35.1526 31.8077 34.272 34.6087C33.3913 37.4098 33.5964 40.4397 34.8465 43.0965C34.3499 43.3584 33.8755 43.6606 33.4283 44H7.33333C6.16638 44 5.04722 44.4636 4.22206 45.2887C3.3969 46.1139 2.93333 47.233 2.93333 48.4V73.3333H1.46667C1.07768 73.3333 0.70463 73.4879 0.429577 73.7629C0.154523 74.038 0 74.411 0 74.8V80.6667C0 81.0557 0.154523 81.4287 0.429577 81.7038C0.70463 81.9788 1.07768 82.1333 1.46667 82.1333H4.4V86.5333C4.4 86.9223 4.55452 87.2954 4.82958 87.5704C5.10463 87.8455 5.47768 88 5.86667 88H83.6C83.989 88 84.362 87.8455 84.6371 87.5704C84.9121 87.2954 85.0667 86.9223 85.0667 86.5333V82.1333H86.5333C86.9223 82.1333 87.2954 81.9788 87.5704 81.7038C87.8455 81.4287 88 81.0557 88 80.6667V74.8C88 74.411 87.8455 74.038 87.5704 73.7629C87.2954 73.4879 86.9223 73.3333 86.5333 73.3333ZM79.2 52.184V73.3333H70.4V70.4939C71.7679 69.4496 72.8766 68.1039 73.6396 66.5613C74.4027 65.0188 74.7997 63.321 74.7997 61.6C74.7997 59.879 74.4027 58.1812 73.6396 56.6387C72.8766 55.0961 71.7679 53.7504 70.4 52.7061V49.8667H67.4667V53.5333C67.4667 53.8001 67.5396 54.0618 67.6773 54.2903C67.8151 54.5187 68.0125 54.7053 68.2484 54.8299C69.3616 55.5739 70.2742 56.5809 70.9054 57.7618C71.5365 58.9427 71.8667 60.261 71.8667 61.6C71.8667 62.939 71.5365 64.2573 70.9054 65.4382C70.2742 66.6191 69.3616 67.6261 68.2484 68.3701C68.0125 68.4947 67.8151 68.6813 67.6773 68.9097C67.5396 69.1382 67.4667 69.3999 67.4667 69.6667V73.3333H44V48.4C43.9971 47.4477 43.6846 46.5221 43.1097 45.7629C42.5349 45.0036 41.7288 44.4518 40.8129 44.1907L42.9323 43.5747C44.3637 48.0979 49.5249 51.3333 55.7333 51.3333C61.9417 51.3333 67.1029 48.0979 68.5344 43.5747L73.7733 45.1L73.92 45.144L74.0799 45.1909C75.5656 45.6613 76.8629 46.5927 77.7836 47.8501C78.7042 49.1075 79.2004 50.6256 79.2 52.184ZM37.1844 44L37.1052 43.7433L37.2167 44H37.1844ZM55.7333 35.2C53.0114 35.1969 50.4018 34.1142 48.4771 32.1895C46.5524 30.2648 45.4698 27.6553 45.4667 24.9333V20.5333H48.1917C50.3112 20.5391 52.4108 20.1245 54.369 19.3133C56.3271 18.5021 58.1049 17.3106 59.5995 15.8077L59.7315 15.6757L60.1333 16.4795C60.686 17.5953 61.5154 18.5509 62.5425 19.2549C63.5696 19.959 64.7599 20.388 66 20.5011V24.9333C65.9969 27.6553 64.9142 30.2648 62.9895 32.1895C61.0648 34.1142 58.4553 35.1969 55.7333 35.2ZM52.8 39.6V37.7931C54.7292 38.2467 56.7374 38.2467 58.6667 37.7931V39.6C58.6667 39.9173 58.7696 40.2261 58.96 40.48C59.1504 40.7339 59.418 40.9191 59.7227 41.008L65.7155 42.7533C64.6316 45.9991 60.5323 48.4 55.7333 48.4C50.9344 48.4 46.8351 45.9991 45.7512 42.7533L51.744 41.008C52.0486 40.9191 52.3163 40.7339 52.5067 40.48C52.6971 40.2261 52.8 39.9173 52.8 39.6ZM69.7737 30.1899C71.2837 30.8943 72.5599 32.0171 73.4508 33.4251C74.3418 34.8331 74.81 36.4672 74.8 38.1333C74.7994 39.5015 74.4715 40.8498 73.8437 42.0655L61.6 38.5V36.74C63.7995 35.6488 65.651 33.9657 66.9464 31.88C68.2419 29.7943 68.93 27.3886 68.9333 24.9333V28.864C68.9334 29.1419 69.0124 29.4141 69.1612 29.6488C69.31 29.8836 69.5224 30.0712 69.7737 30.1899ZM42.5333 16.1333C42.5333 12.6325 43.924 9.275 46.3995 6.79952C48.875 4.32404 52.2325 2.93333 55.7333 2.93333C59.2342 2.93333 62.5917 4.32404 65.0671 6.79952C67.5426 9.275 68.9333 12.6325 68.9333 16.1333V19.0667C68.9333 18.6777 68.7788 18.3046 68.5038 18.0296C68.2287 17.7545 67.8557 17.6 67.4667 17.6H66.6923C65.8746 17.603 65.0725 17.3768 64.3769 16.947C63.6814 16.5171 63.1202 15.9009 62.7572 15.1683L61.4533 12.5444C61.3493 12.3364 61.1973 12.1561 61.0099 12.0183C60.8224 11.8806 60.6049 11.7895 60.3753 11.7524C60.146 11.7171 59.9117 11.7359 59.6909 11.8072C59.4702 11.8785 59.2691 12.0004 59.1037 12.1631L57.5329 13.7339C56.3092 14.9643 54.8534 15.9396 53.2499 16.6033C51.6464 17.267 49.9271 17.6057 48.1917 17.6H44C43.611 17.6 43.238 17.7545 42.9629 18.0296C42.6879 18.3046 42.5333 18.6777 42.5333 19.0667V16.1333ZM41.6929 30.1899C41.9433 30.0716 42.1552 29.8849 42.3039 29.6513C42.4526 29.4177 42.5322 29.1468 42.5333 28.8699V24.9333C42.5367 27.3886 43.2248 29.7943 44.5202 31.88C45.8157 33.9657 47.6672 35.6488 49.8667 36.74V38.5L37.6229 42.0655C36.9952 40.8498 36.6673 39.5015 36.6667 38.1333C36.6567 36.4672 37.1249 34.8331 38.0158 33.4251C38.9068 32.0171 40.1829 30.8943 41.6929 30.1899ZM5.86667 48.4C5.86667 48.011 6.02119 47.638 6.29624 47.3629C6.5713 47.0879 6.94435 46.9333 7.33333 46.9333H39.6C39.989 46.9333 40.362 47.0879 40.6371 47.3629C40.9121 47.638 41.0667 48.011 41.0667 48.4V67.4667H5.86667V48.4ZM5.86667 70.4H41.0667V73.3333H5.86667V70.4ZM82.1333 85.0667H7.33333V82.1333H82.1333V85.0667ZM85.0667 79.2H2.93333V76.2667H85.0667V79.2Z" fill="#8D1540"/>
<path d="M23.4667 52.8C22.5964 52.8 21.7457 53.0581 21.0221 53.5416C20.2986 54.0251 19.7346 54.7123 19.4016 55.5162C19.0686 56.3202 18.9814 57.2049 19.1512 58.0584C19.321 58.912 19.74 59.696 20.3554 60.3113C20.9707 60.9267 21.7547 61.3457 22.6083 61.5155C23.4618 61.6853 24.3465 61.5981 25.1505 61.2651C25.9545 60.9321 26.6416 60.3681 27.1251 59.6446C27.6086 58.921 27.8666 58.0703 27.8666 57.2001C27.8666 56.0331 27.4031 54.9139 26.5779 54.0888C25.7528 53.2636 24.6336 52.8 23.4667 52.8ZM23.4667 58.6667C23.1766 58.6667 22.893 58.5807 22.6518 58.4195C22.4106 58.2584 22.2226 58.0293 22.1116 57.7613C22.0006 57.4933 21.9716 57.1984 22.0282 56.9139C22.0848 56.6294 22.2244 56.3681 22.4296 56.163C22.6347 55.9578 22.896 55.8182 23.1805 55.7616C23.465 55.705 23.7599 55.734 24.0279 55.845C24.2959 55.956 24.525 56.144 24.6861 56.3852C24.8473 56.6264 24.9333 56.91 24.9333 57.2001C24.9333 57.589 24.7788 57.9621 24.5037 58.2371C24.2287 58.5122 23.8556 58.6667 23.4667 58.6667Z" fill="#8D1540"/>
<path d="M13.2 23.4666C12.8111 23.4666 12.438 23.3121 12.163 23.037C11.8879 22.762 11.7334 22.3889 11.7334 21.9999H8.80005C8.80381 22.9067 9.08764 23.7902 9.61271 24.5295C10.1378 25.2688 10.8784 25.8278 11.7334 26.1301V27.8666H14.6667V26.1301C15.6445 25.7857 16.4689 25.1063 16.9938 24.2124C17.5187 23.3184 17.7103 22.2675 17.5346 21.2458C17.3589 20.2241 16.8274 19.2976 16.034 18.6303C15.2406 17.963 14.2367 17.598 13.2 17.5999C12.91 17.5999 12.6264 17.5139 12.3852 17.3528C12.144 17.1916 11.956 16.9625 11.845 16.6945C11.734 16.4265 11.705 16.1316 11.7616 15.8471C11.8182 15.5626 11.9578 15.3013 12.163 15.0962C12.3681 14.8911 12.6294 14.7514 12.9139 14.6948C13.1984 14.6382 13.4933 14.6672 13.7613 14.7782C14.0293 14.8893 14.2584 15.0772 14.4195 15.3184C14.5807 15.5596 14.6667 15.8432 14.6667 16.1333H17.6C17.5963 15.2265 17.3125 14.343 16.7874 13.6037C16.2623 12.8644 15.5216 12.3054 14.6667 12.0031V10.2666H11.7334V12.0031C10.7556 12.3475 9.93122 13.0269 9.40631 13.9209C8.8814 14.8148 8.68981 15.8657 8.86548 16.8874C9.04115 17.9091 9.57274 18.8356 10.3661 19.5029C11.1594 20.1702 12.1634 20.5352 13.2 20.5333C13.589 20.5333 13.9621 20.6878 14.2371 20.9628C14.5122 21.2379 14.6667 21.611 14.6667 21.9999C14.6667 22.3889 14.5122 22.762 14.2371 23.037C13.9621 23.3121 13.589 23.4666 13.2 23.4666Z" fill="#8D1540"/>
<path d="M13.2 32.2667C15.8107 32.2667 18.3628 31.4925 20.5335 30.0421C22.7043 28.5917 24.3961 26.5301 25.3952 24.1181C26.3943 21.7061 26.6557 19.0521 26.1464 16.4915C25.637 13.931 24.3799 11.5789 22.5338 9.73289C20.6878 7.88684 18.3357 6.62966 15.7752 6.12034C13.2146 5.61101 10.5606 5.87242 8.14858 6.8715C5.73659 7.87057 3.67504 9.56245 2.2246 11.7332C0.774166 13.9039 0 16.456 0 19.0667C0.0042694 22.5662 1.39635 25.9212 3.87091 28.3958C6.34546 30.8704 9.70045 32.2624 13.2 32.2667ZM13.2 8.80004C15.2306 8.80004 17.2155 9.40217 18.9039 10.5303C20.5922 11.6584 21.9081 13.2618 22.6852 15.1378C23.4622 17.0138 23.6655 19.0781 23.2694 21.0696C22.8733 23.0612 21.8954 24.8905 20.4596 26.3263C19.0238 27.7622 17.1945 28.74 15.2029 29.1361C13.2114 29.5322 11.1471 29.3289 9.27112 28.5519C7.39513 27.7748 5.79169 26.4589 4.66358 24.7706C3.53546 23.0822 2.93333 21.0973 2.93333 19.0667C2.93644 16.3448 4.0191 13.7352 5.9438 11.8105C7.8685 9.8858 10.4781 8.80314 13.2 8.80004Z" fill="#8D1540"/>
<path d="M30.8 13.2H36.6667V16.1333H30.8V13.2Z" fill="#8D1540"/>
<path d="M30.134 5.72534L31.4452 3.10294L37.3089 6.03479L35.9977 8.65719L30.134 5.72534Z" fill="#8D1540"/>
<path d="M30.1238 23.6187L35.9875 20.6868L37.2987 23.3092L31.435 26.2411L30.1238 23.6187Z" fill="#8D1540"/>
<path d="M74.8 13.2H80.6667V16.1333H74.8V13.2Z" fill="#8D1540"/>
<path d="M74.1093 6.03467L79.9729 3.10282L81.2841 5.72523L75.4205 8.65707L74.1093 6.03467Z" fill="#8D1540"/>
<path d="M74.118 23.3411L75.4292 20.7187L81.2929 23.6505L79.9817 26.2729L74.118 23.3411Z" fill="#8D1540"/>
</svg>
