<svg width="16" height="15" viewBox="0 0 16 15" fill="none" xmlns="http://www.w3.org/2000/svg">
<path d="M14.3825 8.40432C13.9886 11.4534 11.6657 11.6437 11.2352 11.7769C11.0525 11.834 9.35905 12.2375 7.22701 12.1043L4.92036 14.5024L4.9163 11.7389L4.90005 11.735C1.79744 10.909 1.90303 7.8067 1.93551 6.1813C1.97206 4.55591 2.28882 3.21981 3.23504 2.32528C4.93254 0.848339 8.4372 1.06912 8.4372 1.06912C11.3936 1.08054 12.8109 1.93701 13.1399 2.2225C14.2323 3.11704 14.7886 5.26393 14.3825 8.40432ZM13.948 1.46119C13.5581 1.1186 11.9906 0.0261264 8.49405 0.0109003C8.49405 0.0109003 4.37212 -0.228912 2.36192 1.54113C1.24514 2.61457 0.851222 4.18668 0.806551 6.13563C0.765941 8.08457 0.713148 11.735 4.38024 12.7247H4.3843V14.2359C4.3843 14.2359 4.35994 14.8488 4.78228 14.9706C5.28991 15.1229 5.58636 14.6585 6.07369 14.156C6.34171 13.8819 6.7072 13.4784 6.98335 13.1701C9.49306 13.3719 11.422 12.9075 11.6373 12.8428C12.1449 12.6829 15.0079 12.3327 15.4749 8.6822C15.9501 4.91373 15.2353 2.53464 13.948 1.46119Z" fill="#834995"/>
<path d="M11.7104 8.861C11.7104 8.861 11.2393 8.48416 11.0119 8.32428C10.7967 8.17202 10.4515 7.96647 10.2606 7.86369C9.91542 7.68098 9.56211 7.79517 9.41592 7.97789L9.11134 8.34331C8.95702 8.52983 8.71742 8.49558 8.6565 8.48416C8.20979 8.37757 7.73466 8.11873 7.24733 7.67717C6.75595 7.2318 6.45544 6.76741 6.34985 6.28398L6.34173 6.25352C6.3133 6.05558 6.34985 5.96423 6.43513 5.82719L6.45138 5.81577C6.65443 5.63686 7.03616 5.41989 7.08489 5.21434C7.23515 4.85652 6.58539 4.10663 6.49605 3.97721C6.49605 3.97721 6.02497 3.39481 5.85847 3.28061C5.67978 3.13977 5.39957 3.05983 5.1153 3.22352L5.09906 3.23494C4.28686 3.74882 3.99446 4.04573 4.07568 4.48348L4.11629 4.66239C4.52645 5.87668 5.32241 7.1709 6.50417 8.32428C7.67374 9.46244 8.94078 10.1438 10.1875 10.6158C10.5124 10.7186 10.8495 10.631 11.1946 10.3532L11.1987 10.3494C11.4627 10.1172 11.6738 9.86974 11.8282 9.60328V9.59947C11.9865 9.30637 11.9337 9.03991 11.7104 8.861Z" fill="#834995"/>
<path d="M9.76918 6.20032C9.72045 6.20032 9.67984 6.16226 9.67578 6.11658C9.65953 5.80064 9.57019 5.56082 9.40775 5.40095C9.24531 5.24108 9.00571 5.15352 8.68895 5.13449C8.63616 5.13069 8.59961 5.08881 8.59961 5.03933C8.60367 4.98984 8.64428 4.95178 8.69707 4.95558C9.06256 4.97462 9.34278 5.0812 9.5377 5.27533C9.73263 5.46947 9.84228 5.74735 9.85852 6.10897C9.86259 6.15845 9.82197 6.20032 9.76918 6.20413" fill="#834995"/>
<path d="M10.6911 6.49718C10.6383 6.49718 10.5977 6.4553 10.5977 6.40582C10.6139 5.80058 10.4231 5.2905 10.0373 4.88701C9.8464 4.68526 9.61086 4.52539 9.34283 4.415C9.07481 4.3008 8.75805 4.23228 8.41286 4.20944C8.36007 4.20564 8.32352 4.16377 8.32758 4.11428C8.33164 4.0648 8.37631 4.02673 8.4291 4.03054C9.17227 4.08383 9.76112 4.33125 10.1794 4.76901C10.5977 5.20676 10.8048 5.76251 10.7886 6.41343C10.7845 6.45911 10.7439 6.49718 10.6911 6.49718Z" fill="#834995"/>
<path d="M11.6373 6.85498C11.5845 6.85498 11.5439 6.81691 11.5439 6.76743C11.5398 6.23451 11.4545 5.75108 11.288 5.33236C11.1215 4.91745 10.8738 4.55202 10.5489 4.24369C10.2241 3.93917 9.85044 3.70697 9.4484 3.5509C9.0423 3.39483 8.59153 3.31489 8.10421 3.31489C8.05141 3.31489 8.0108 3.27302 8.0108 3.22354C8.0108 3.17405 8.05141 3.13599 8.10421 3.13599C9.12758 3.1436 9.99258 3.47096 10.6789 4.11427C11.0241 4.43782 11.288 4.82609 11.4627 5.26765C11.6373 5.7054 11.7266 6.21167 11.7307 6.76743C11.7307 6.81311 11.6901 6.85117 11.6373 6.85498Z" fill="#834995"/>
</svg>
